To: ahmad <khorshidi@yahoo.com>
Subject: =?utf-8?Q?=D9=BE=DB=8C=D8=BA=D8=A7=D9=85=DB=8C_=D8=A8?=
 =?utf-8?Q?=D8=B1=D8=A7=DB=8C_=D9=BE=D8=B3=D8=AA_=D8=B4=D9=85=D8=A7?=
Message-ID: <5a96147c72ee1f65aa8dfff1befb174f@localhost>
Date: Fri, 09 Oct 2015 13:55:04 +0000
From: Ahmad Khorshidi <websender@techniconline.com>
MIME-Version: 1.0
Content-Type: text/html; charset=utf-8
Content-Transfer-Encoding: quoted-printable

<!doctype html>
<html lang=3D"fa">
<head>
    <meta charset=3D"UTF-8">
    <title>comments.messages..HiDear ahmad</title>
</head>
<body style=3D"direction: rtl">
<div>comments.messages..HiDear, ahmad</div>
<p></p>
<div style=3D"color: green">=D9=BE=DB=8C=D8=BA=D8=A7=D9=85=DB=8C =D8=A8=
=D8=B1=D8=A7=DB=8C =D9=BE=D8=B3=D8=AA =D8=B4=D9=85=D8=A7</div>
<p></p>
<div>sadsad asdsad</div>
</body>
</html>
